<svg xmlns="http://www.w3.org/2000/svg" viewBox="0 0 191.83 281.98">
  <title>cardiac</title>
  <path d="M554.62,144.49c5.23-.89,8.48-1.81,9.15-8.36,1.26-12.3,4.29-24.44,6.85-36.58,0.34-1.6,2.28-2.87,3.48-4.29,0.42,1.83,1.48,3.77,1.16,5.46-1.54,8.13-3.45,16.19-4.71,24.5,6-7.94,12.52-14.87,22.54-17.23a38,38,0,0,1,26.49,3.3c1.32,0.66,2,2.68,2.91,4.07-1.7.09-3.64,0.77-5.05,0.18-12.36-5.14-24.26-5.78-34.88,3.69-6.27,5.59-9.89,13-12.47,21.14,5.07,1.54,8,.66,10.18-4.63a42.08,42.08,0,0,1,9.21-13.2c6.75-6.7,18.25-7.08,25.1-1.47,0.93,0.76,1.06,2.51,1.56,3.8-1.22.18-2.81,0.95-3.59,0.45-12.36-7.93-21.78.2-26.81,10.13-1,2-1.88,4-3,6.54,14,4.48,23.63,13.89,31.79,25.16a5.65,5.65,0,0,0,4.73,1.61c7.71-1.56,15.36-3.42,23-5.36s12.69,0.23,14.42,6.24c1.94,6.76-2.54,15-9.29,16.55-6.09,1.4-12.27,2.4-17.35,3.38,2,10.1,4,19.73,5.78,29.41a13.91,13.91,0,0,1-.33,7.3C630.84,237.6,635,249.5,633,261c-0.5,2.83,1.55,6,1.77,9.07,0.75,10.45-2.67,20.1-6.78,29.4q-9.56,21.63-20,42.86a108.56,108.56,0,0,1-10.25,16.46c-16.39,22.15-46.52,17.25-60.58,3.86-4.65-4.43-8.53-9.73-12.43-14.88-9.72-12.85-19-26.07-28.92-38.73-10.47-13.33-18.11-27.83-21.42-44.54a30.77,30.77,0,0,0-2.49-6.85c-6.42-13.8-5.19-27.88-2-42.17,3.45-15.41,10.44-28.46,23.35-38.08A11.87,11.87,0,0,0,497,171c3.87-15.84,12.58-27.93,26.92-35.77a28.51,28.51,0,0,0-28.61-17.7c-1.27.1-2.63-1-3.94-1.47,1.06-1.16,2.18-3.36,3.16-3.3,5.32,0.33,11.2,0,15.74,2.24,5.45,2.69,9.91,7.55,14.48,11.83,2.91,2.72,4.52,6.19,9.24,7.58,2.73,0.8,4.34,6.49,5.79,10.23,0.88,2.29.49,5.06,0.73,8.4l8.53-5.31c-1.45-3.74-2.83-7.44-4.31-11.11-4.77-11.84-9.65-23.64-14.27-35.55-0.63-1.62,0-3.73.08-5.62,1.5,1.27,3.7,2.24,4.39,3.85,5,11.88,9.79,23.88,14.94,36.61,2.8-11.85,5.38-22.82,8-33.78,0.32-1.36.42-2.89,1.13-4s2.07-1.84,3.14-2.73c0.52,1.41,1.72,3,1.46,4.21-2.66,12.84-5.58,25.62-8.35,38.44A56.87,56.87,0,0,0,554.62,144.49Zm-2.1,46.27a29.49,29.49,0,0,1-3.41,4.44c-1.12,1-2.76,1.48-4.17,2.2,0.08-1.72-.54-4,0.34-5,6.08-7,11.92-14.31,18.91-20.29,8-6.85,14.07-6.37,22.8-.55a4.19,4.19,0,0,0,2.32.91c6.81-.56,13.61-1.24,22-2-5-5.39-8.54-9.73-12.61-13.52-12.8-11.94-28.57-14.18-44.14-6.24-11.75,6-21.31,14.73-29.35,25.09-1,1.24-.88,3.83-0.39,5.54,1.53,5.37,4,10.51,5.17,15.93,3.23,14.32-2.06,26.5-14.53,34.24-3.71,2.3-7.64,4.27-11.52,6.28-7.06,3.65-12.46,8.64-15.8,16.16-1.72,3.87-5.31,6.91-8.59,11,2.82,13.41,9.08,26.5,18.22,38.38,10.57,13.75,20.75,27.8,31.21,41.64,3.69,4.88,7.28,10,11.64,14.18,14.11,13.67,37.67,13.43,50.6-.55a65.5,65.5,0,0,0,10.52-15c7.57-15.21,15-30.54,21.54-46.2,3.28-7.8,5.13-16.32,6.69-24.69,1.15-6.2-1.07-7.83-7.36-7.17-10.38,1.09-20.55.13-29.17-6.05-5-3.55-8.77-8.69-12.56-12.56-4.71.43-9.47,1.81-13.88,1.09-11.12-1.82-21-6.49-28.49-15.42-6.73-8-6.65-11.07,1.23-17.82,5.2-4.44,10.72-8.54,15.62-13.28C560.48,196.41,559.66,193.75,552.53,190.75Zm3.87-4.45c6.66,4.82,8.33,7.65,6.61,12.24a17.4,17.4,0,0,1-4.32,6.41c-5.78,5.34-11.83,10.39-17.78,15.54-1.92,1.66-2.91,3.29-1,5.78,7.86,10.35,18.1,16.23,31.17,16.87,5.22,0.25,8.73-2.2,10.25-7.18a80.66,80.66,0,0,0,2.85-11.14c2.4-15.47,10.88-26.48,24.93-32.7,9.63-4.27,19.86-7.2,29.87-10.74l-1.9-11.08c-1.25.22-2.44,0.38-3.61,0.64-19,4.33-38.18,8.54-57.62,6.07C566.31,175.81,561.58,179.85,556.4,186.3ZM477.17,258l2.4,0.05c1.42-2.1,3.3-4,4.18-6.33,3.33-8.76,9.85-14.25,17.85-18.41,3.57-1.86,7.09-3.82,10.61-5.76,8.53-4.71,13.18-12,13.42-21.69,0.27-11.25-4.11-21.16-9.84-30.53-2-3.19-4.92-3.86-8.16-1.88-11,6.75-21.47,14.48-27.11,26.4-6.27,13.28-9.48,27.55-7.81,42.36C473.32,247.56,475.64,252.73,477.17,258ZM628,259.84c0-7.15.49-13.81-.14-20.37-0.6-6.23-1.86-12.72-8-16.32-7.55-4.43-29.06,3.5-33,11.47-3.25,6.64-.51,11.55,3.66,16C600.83,261.66,613.88,261.92,628,259.84Zm-38.47-35c22.69-11.67,28.44-11.45,40.7,1.51,1.77-12.62-1.09-23.92-7.08-35C606.76,197.44,592.51,205,589.53,224.86Zm-67.67-81.75c-9,4.7-17.29,16.63-18.37,26,10.48-2.47,10.48-2.47,17.23,3.5l8.57-9.33C523.21,157.84,520.13,151.39,521.86,143.11Zm9.79-4.52c-4.2,2.52-5.62,6.51-5.06,11,0.52,4.16,2.25,7.92,6.92,9.27C536.6,151.75,535.83,143.21,531.66,138.59Zm109,35.23,6.15,7.24c1.7-2.74,4.11-5.31,4.81-8.28,0.33-1.41-2.62-3.58-4.08-5.41Z" transform="translate(-466.26 -93.09)" style="stroke-miterlimit: 10;stroke-width: 2px;fill-rule: evenodd"/>
</svg>
