<svg xmlns="http://www.w3.org/2000/svg" viewBox="0 0 294.82 244.04">
  <title>concierge</title>
  <g>
    <path d="M851.22,282.38H802c0-4.65-.27-9.26.05-13.84,0.76-10.85-4.61-17.86-13.45-23.13-12-7.16-23.78-14.72-35.84-21.8a48.36,48.36,0,0,1-20.88-23.33c-4.88-11.46-10.08-22.79-15.32-34.1a45.1,45.1,0,0,1-3.7-23.35c1-11.28,1.73-22.58,2.91-33.84,0.32-3-.22-7.66,4.13-8,4.1-.36,6.78,3.19,7.45,6.9,1.73,9.64,2.93,19.38,4.24,29.09,0.51,3.76.78,7.56,1.15,11.19-8.48,4.21-9.21,8-3.68,15.29,5.31,7,10.14,14.42,15.65,21.28,2.58,3.21,6.28,5.52,9.71,7.76-7.57-10.37-15.18-20.72-22.7-31.14-1.54-2.14-4.93-4.73-1.91-7.13a11.27,11.27,0,0,1,9-1.58c10.86,3.37,18.8,11,25.8,19.66,2,2.46,4.08,4.85,5.95,7.39,5.68,7.76,13.49,10.49,22.85,11,35.19,1.83,55.62,32,59.62,54.95,0.56,3.2.2,6.6,0,9.9C852.49,264.28,851.85,273.06,851.22,282.38Z" transform="translate(-712.62 -38.34)" style="fill-rule: evenodd"/>
    <path d="M966.67,193.25c3.61-3.88,7.46-7.59,10.79-11.7,4.6-5.68,8.7-11.77,13.24-17.51,6.16-7.79,5.61-11.35-3.48-16.21,1.69-12.57,3.4-25.4,5.17-38.22a5.68,5.68,0,0,1,1.17-3.23c2.19-2,4.64-3.77,7-5.63,1.31,2.29,3.56,4.5,3.78,6.89q2,22.13,3.1,44.33a23.51,23.51,0,0,1-2.22,10.1c-6.46,14.76-13.22,29.39-19.91,44.05A31.61,31.61,0,0,1,972.77,220c-13.73,8.5-27.4,17.08-41.2,25.47-8.59,5.22-14.06,12-13.27,22.7,0.34,4.6.06,9.24,0.06,14.12H868.84c-0.36-7.41-.43-14.7-1.11-21.93a63.84,63.84,0,0,1,52.34-68.76c3.93-.7,7.89-1.67,11.84-1.66,7.28,0,12.1-4,16.55-8.89,5.91-6.53,11.37-13.54,17.83-19.48,4.17-3.84,9.7-6.25,14.79-9a9.2,9.2,0,0,1,5.29-.77c5.07,0.69,6.39,3.85,3.37,8-7.9,10.89-15.91,21.69-23.87,32.53Z" transform="translate(-712.62 -38.34)" style="fill-rule: evenodd"/>
  </g>
  <g>
    <path d="M864.14,80.48l-0.21,0-0.52,0h-0.09l-0.64,0h-0.11l-0.67,0h-0.8a28.78,28.78,0,1,0,0,57.55h0.8l0.71,0h0l0.69,0h0q0.69-.05,1.36-0.14h0.06l0.63-.09,0.12,0,0.6-.1,0.11,0,0.57-.11h0.07l0.58-.12,0.14,0A28.78,28.78,0,0,0,864.14,80.48Zm-3.32,55a26.32,26.32,0,1,1,26.32-26.32A26.32,26.32,0,0,1,860.82,135.51Z" transform="translate(-712.62 -38.34)" style="fill-rule: evenodd"/>
    <polygon points="156.8 50.03 139.46 50.03 139.46 61.45 127.76 61.45 127.76 79.07 139.32 79.07 139.32 91.06 156.94 91.06 156.94 79.22 168.5 79.22 168.5 61.59 156.8 61.59 156.8 50.03" style="fill-rule: evenodd"/>
    <path d="M928.09,48.2c-20.74-12.66-42.39-13.64-63.46,0-3.39,2.2-5.66,2.53-9.1.06-9-6.46-19.29-9.49-31.71-9.79-2.16.26-5.63,0.65-9.08,1.12C789.8,43,774.27,59.11,772,84.12c-1.59,17.81,5.19,32.82,15.84,46.54,16.94,21.83,37.67,39.95,57.61,58.8,10.4,9.83,19.6,9.36,30.28-.91,16.56-15.91,33.07-31.92,48.76-48.68,12.13-13,22.31-27.41,23.56-46.22S944.73,58.35,928.09,48.2Zm-58,93.66c-0.87,4.18-6.55,4.41-8.49,4.36a37.7,37.7,0,0,1,.19-75.4h0c0.87-.06,8.91-0.47,9.17,5.18A34.06,34.06,0,0,1,870.14,141.86Z" transform="translate(-712.62 -38.34)" style="fill-rule: evenodd"/>
  </g>
</svg>
