<svg xmlns="http://www.w3.org/2000/svg" viewBox="0 0 269.1 281.03">
  <title>orthopedic</title>
  <g>
    <path d="M203,227.09c4.2-1.22,7.42-1.95,10.49-3.09,4.66-1.74,9.19-3.8,13.81-5.65,4.16-1.66,7-4.47,7.79-9s1.24-9.22,1.79-13.83a36.88,36.88,0,0,1,10.17-21.21c27.29-29.2,58.31-54,90.69-77.26,1.25-.89,3.65-0.18,5.51-0.21-0.8,1.71-1.14,4-2.46,5.06-19.34,15.51-39.12,30.49-58.12,46.39C271.77,157.5,262,168,251.78,178.09c-6.75,6.67-9.34,15.09-9.73,24.41-0.29,7.08-.68,14.92-7.76,18.43-13.46,6.67-26.71,15.5-43.14,9-17.85-7.11-27.43-25.66-23.54-45.66,3.17-16.29,12.28-28.09,27.24-34.61,12.67-5.52,22.52-14.16,32.64-23.23C243.55,112,260.87,99,277.82,85.56c1.34-1.06,5.07-1.39,5.76-.52,2,2.51-.56,4-2.53,5.31-20.41,13.91-39.6,29.29-56.64,47.23-7,7.41-15.7,12.14-24.91,16.21-9.68,4.27-17.58,10.58-22.45,20.33-8.59,17.21-4.29,38.11,10.46,47.08C192.32,224.13,198.18,225.31,203,227.09Z" transform="translate(-117.51 -76.55)" style="stroke-miterlimit: 10;stroke-width: 2px;fill-rule: evenodd"/>
    <path d="M118.6,327l2.32,0.13c0,9.81-.11,19.63.05,29.44h5.68c-0.16-20.11-1.58-40.32.16-60.25,1.92-22.06,4.77-44,3.34-66.17-0.66-10.3-.84-20.63-0.91-31,0-7.93-.69-16.09.92-23.73,2.91-13.86,12.95-23.39,23.2-32.26,22.81-19.73,45.84-39.2,68.75-58.81,1.66-1.42,4.39-2.88,2.07-5.61s-4.2-.34-5.88,1.1c-23.47,20-47,39.89-70.3,60.07-10.4,9-19.49,19.14-23.58,32.81-3,10-1.12,20.15-.9,30.27,0.45,20.63,1.45,41.31.62,61.9S120.53,306.33,118.6,327Z" transform="translate(-117.51 -76.55)" style="stroke-miterlimit: 10;stroke-width: 2px;fill-rule: evenodd"/>
    <path d="M142.13,281.12c-1-9-2.52-18.07-2.91-27.14a61.09,61.09,0,0,1,2-17.09c1.63-6.57,4.35-12.87,6.6-19.28,2.82-8,10.15-10,16.42-4.25C169,217.75,173,223,178,227a44.11,44.11,0,0,0,31.65,9.75,42.75,42.75,0,0,1,12.31,1c5.15,1.17,8.31,4.81,8.85,10.22,0.49,4.83-2.52,9.29-7.74,11.66-8.17,3.7-16.39,7.29-24.58,10.95-8.63,3.86-12.22,10.79-12.15,20,0,5.33.08,10.67,0,16-0.1,5.1-1.61,5.88-6.17,3.39a12.43,12.43,0,0,1-2.15-1.26c-5.92-5-12-6.29-18.7-1.29-1.11.83-3.48,0.61-5,.11-8.52-2.78-14.7-7.27-12.76-17.79,0.5-2.71-.2-5.64-0.35-8.47Zm38.35,21.64c0-4.09.15-7.54,0-11-0.67-12.79,4.93-21.77,16.42-27.07,7.84-3.62,15.92-6.73,23.64-10.57,2-1,4.06-3.87,4.09-5.92,0-1.65-2.7-4.26-4.67-4.83a30.3,30.3,0,0,0-10.33-.69c-10.66.74-20.82-1.31-29.48-7.31-6.88-4.77-12.72-11.06-18.92-16.79-4.2-3.89-6.28-3.44-8.13,1.91-2.17,6.27-4.35,12.53-6.7,18.73-2.14,5.65-2.15,11.27-.95,17.13a96.42,96.42,0,0,1,1.72,14.28c0.41,7.81.35,15.65,0.66,23.47,0.19,4.94,7.32,9.34,11.47,6.59,6.79-4.51,12.77-4.31,18.78,1A13.55,13.55,0,0,0,180.48,302.76Z" transform="translate(-117.51 -76.55)" style="stroke-miterlimit: 10;stroke-width: 2px;fill-rule: evenodd"/>
    <path d="M252.11,288.37c3.13,17.19,2,34.51.41,51.77-0.51,5.4-1.34,10.77-2.22,16.45h5.62c1.34-10.74,2.88-21.46,3.53-32.24,1.18-19.32-.17-37.94-8.28-56.54-6.82-15.64-2.9-25.21,12.29-29.82a314,314,0,0,0,39.44-15.49c26.43-12.14,52.57-24.89,78.73-37.61,1.54-.75,2.17-3.38,3.22-5.14-1.92,0-4.24-.76-5.71,0-39.36,21.48-80.43,39.08-122.45,54.58-7.35,2.71-12.25,7.52-13.39,15.29-1.27,8.71-.37,17.16,3.9,25.21A47.51,47.51,0,0,1,252.11,288.37Z" transform="translate(-117.51 -76.55)" style="stroke-miterlimit: 10;stroke-width: 2px;fill-rule: evenodd"/>
    <path d="M142,356.59h6c0-14.12,0-28.26,0-42.69,4.55,0.77,7.76,5.43,12.17,2.06,5.89-4.49,11.2-3.59,16.89.76,2.66,2,4.3,3.79,4,7.19-0.87,10.89-1.75,21.78-2.46,32.68h6.13a235.39,235.39,0,0,0,2.26-24c0.49-16.62.08-16.55-14.16-25.12-2.92-1.76-5.44-2.33-8.21-.28-5.31,3.93-10.34,3.5-15.9.08-5.24-3.21-6.73-2.11-6.74,4,0,13.81,0,27.62,0,41.43C142,354,142,355.29,142,356.59Z" transform="translate(-117.51 -76.55)" style="stroke-miterlimit: 10;stroke-width: 2px;fill-rule: evenodd"/>
    <path d="M220.21,275.69c-0.37,13.43-.75,26.86-1.09,40.28-0.08,3.15-1.5,5.25-4.56,3.6-4.11-2.23-7.8-1.38-11.84-.24-6.24,1.76-7,.73-7.66-5.55-0.91-8.35-2.27-16.67-4-24.89-1.3-6.22.15-11.83,5.78-15a92.32,92.32,0,0,1,14.95-6.63C216.86,265.49,221.27,269.79,220.21,275.69Zm-5.5-3.6c-5.68,2.58-10.68,4.34-15.05,7.11-1.73,1.1-3.12,4.61-2.8,6.73,1.41,9.1,3.51,18.1,5.36,27.14l10.47-1.71Z" transform="translate(-117.51 -76.55)" style="stroke-miterlimit: 10;stroke-width: 2px;fill-rule: evenodd"/>
    <path d="M137.69,180c1.41-10.84,6.44-18.72,14.28-25a17,17,0,0,1,4.86-2.45c4.05-1.48,8.21-2.08,11.69,1.16s3.13,7.24,1.5,11.08a101.83,101.83,0,0,0-7.23,28.78c-0.53,4.65-1.9,10.34-8.08,11.29s-8.91-3.81-11-8.31C141.3,191.24,139.67,185.56,137.69,180Zm16.52,19.31c1-2.32,2.56-4.49,2.71-6.77a95,95,0,0,1,7.39-29.74c0.55-1.34.66-4.07,0-4.45a6.76,6.76,0,0,0-5.1-.41c-6.35,2.32-10.06,7.43-12.6,13.36C142.5,180.9,145.94,193.83,154.21,199.35Z" transform="translate(-117.51 -76.55)" style="stroke-miterlimit: 10;stroke-width: 2px;fill-rule: evenodd"/>
    <path d="M195.19,356.59h6c0.1-8.12,0-16.24,0-24.36,0-3.57,3.17-5.77,8.05-5.59,4.28,0.15,3.79,3.08,3.52,6.05-0.72,8-1.43,15.93-2,23.9h5.93c0.88-9.52,1.64-19,2.19-28.58,0.1-1.65-1.44-3.86-2.85-5.06-5.19-4.42-10.73-1.27-16.14-.25-3.22.61-4.82,2.45-4.73,5.92,0.16,5.66,0,11.32,0,17C195.24,349.26,195.16,352.93,195.19,356.59Z" transform="translate(-117.51 -76.55)" style="stroke-miterlimit: 10;stroke-width: 2px;fill-rule: evenodd"/>
  </g>
</svg>
